{
  "createdBy": "Adapty",
  "description": "Fabindia B2B Shopping Cart",
  "developerID": "[Insert Developer ID here]",
  "extensionID": "49851b45-efa9-4ed6-9e95-822fa964dc50",
  "name": "Fabindia B2B SHopping Cart",
  "timeCreated": "2020-03-06",
  "version": 0
}