{
  "config": {},
  "global": false,
  "globalEnabled": false,
  "i18nresources": "fabindiab2bordersummary",
  "imports": [
    "payment",
    "order",
    "paymentauthorization",
    "shippingmethods"
  ],
  "javascript": "fabindiab2bordersummary",
  "jsEditable": true,
  "minWidth": 1,
  "name": "Fabindia B2B Order Summary",
  "pageTypes": ["cart"],
  "source": 101,
  "version": 6
}