{
  "widgetDescriptorName": "b2bSiteSettings",
  "titleResourceId": "b2bSiteSettingsTitle",
  "descriptionResourceId": "b2bSiteSettingsDescription",
  "enableSiteSpecific": true,
  "properties": [
    {
      "id": "collections",
      "type": "stringType",
      "name": "collections",
      "helpTextResourceId": "collectionsHelpText",
      "labelResourceId": "collectionsLabel",
      "defaultValue": "{\"upcoming\":\"WW\", \"current\":\"\", \"isq\":\"\", \"food\":\"\", \"other\":\"\"}",
      "maxLength": 5000
    },{
      "id": "uploadSuggestiveBuyDate",
      "type": "stringType",
      "name": "uploadSuggestiveBuyDate",
      "helpTextResourceId": "uploadSuggestiveBuyDateHelpText",
      "labelResourceId": "uploadSuggestiveBuyDateLabel",
      "defaultValue": ""
    }, {
      "id": "uploadSuggestiveEndDate",
      "type": "stringType",
      "name": "uploadSuggestiveEndDate",
      "helpTextResourceId": "uploadSuggestiveEndDateHelpText",
      "labelResourceId": "uploadSuggestiveEndDateLabel",
      "defaultValue": ""
    }, {    
      "id": "buyDateFranchise",
      "type": "stringType",
      "name": "buyDateFranchise",
      "helpTextResourceId": "buyDateFranchiseHelpText",
      "labelResourceId": "buyDateFranchiseLabel",
      "defaultValue": ""
    },{
      "id": "endDateFranchise",
      "type": "stringType",
      "name": "endDateFranchise",
      "helpTextResourceId": "endDateFranchiseHelpText",
      "labelResourceId": "endDateFranchiseLabel",
      "defaultValue": ""
    }, {
      "id": "buyDateRM",
      "type": "stringType",
      "name": "buyDateRM",
      "helpTextResourceId": "buyDateRMHelpText",
      "labelResourceId": "buyDateRMLabel",
      "defaultValue": ""
    }, {
      "id": "endDateRM",
      "type": "stringType",
      "name": "endDateRM",
      "helpTextResourceId": "endDateRMHelpText",
      "labelResourceId": "endDateRMLabel",
      "defaultValue": ""
    }, {
      "id": "buyOrderPendingApprovalDateRM",
      "type": "stringType",
      "name": "buyOrderPendingApprovalDateRM",
      "helpTextResourceId": "buyOrderPendingApprovalDateRMHelpText",
      "labelResourceId": "buyOrderPendingApprovalDateRMLabel",
      "defaultValue": ""
    }, {
      "id": "endOrderPendingApprovalDateRM",
      "type": "stringType",
      "name": "endOrderPendingApprovalDateRM",
      "helpTextResourceId": "endOrderPendingApprovalDateRMHelpText",
      "labelResourceId": "endOrderPendingApprovalDateRMLabel",
      "defaultValue": ""
  }]
}