{
  "createdBy": "Adapty",
  "description": "Fabindia B2B About Us Home Page",
  "developerID": "[Insert Developer ID here]",
  "extensionID": "6389e569-67cf-4ced-877d-f15c1b438c9b",
  "name": "Fabindia B2B About Us Home Page",
  "timeCreated": "2020-03-04",
  "version": 0
}