{
  "createdBy": "Adapty",
  "description": "Fabindia B2B Order Summary",
  "developerID": "[Insert Developer ID here]",
  "extensionID": "0b0f070e-2d41-438f-8b1e-fa66aa533a17",
  "name": "Fabindia B2B Order Summary",
  "timeCreated": "2020-03-06",
  "version": 0
}