{
  "availableToAllPages": true,
  "config": {
    "exampleBooleanProperty": true,
    "exampleOptionProperty": "option1",
    "exampleStringProperty": "Example String Property Value"
  },
  "global": false,
  "globalEnabled": true,
  "i18nresources": "fabindiab2bupdatepassword",
  "imports": [],
  "javascript": "fabindiab2bupdatepassword",
  "jsEditable": true,
  "pageTypes": ["profile"],
  "minWidth": 1,
  "source": 101,
  "version": 1
}