{
  "global": false,
  "globalEnabled": true,
  "i18nresources": "fabindiaB2BSelectionSummary",
  "imports": [
    "order",
    "payment",
    "shippingmethods",
    "shippingCountriesPriceListGroup",
    "defaultShippingCountry"
  ],
  "javascript": "fabindia-b2b-selection-summary",
  "jsEditable": true,
  "minWidth": 1,
  "pageTypes": ["checkout"],
  "source": 101,
  "translations": [{
    "language": "en",
    "name": "Fabindia B2B Selection Summary"
  }],
  "version": 3
}