{
  "availableToAllPages": true,
  "config": {},
  "global": false,
  "globalEnabled": false,
  "i18nresources": "reports",
  "imports": [],
  "javascript": "fabindiaB2BPurchaseListReports",
  "jsEditable": true,
  "minWidth": 1,
  "source": 101,
  "translations": [{
    "language": "en",
    "name": "Fabindia B2B Purchase List Reports"
  }],
  "version": 1
}