{
  "availableToAllPages": true,
  "config": {
    "maxNoOfItemsInCSV": "999",
    "maxQuantityOfItems": "100",
    "noOfRowsToDisplay": "4"
  },
  "globalEnabled": true,
  "imports": ["purchaseList"],
  "jsEditable": true,
  "minWidth": 1
}