{
  "availableToAllPages": true,
  "config": {
    "catalogId": "cloudCatalog",
    "maxNoOfElements": "10",
    "rootCategoryId": "rootCategory"
  },
  "global": false,
  "globalEnabled": true,
  "i18nresources": "fabindiab2bmegamenu",
  "imports": ["category"],
  "javascript": "fabindiab2bmegamenu",
  "jsEditable": true,
  "minWidth": 1,
  "source": 101,
  "translations": [{
    "language": "en",
    "name": "Fabindia B2B Mega Menu"
  }],
  "version": 1
}
