{
  "config": {
    "catId1":"",
    "catId2":"",
    "catId3":"",
    "catId4":"",
    "catImg1":"",
    "catImg2":"",
    "catImg3":"",
    "catImg4":""
  },
  "global": false,
  "globalEnabled": false,
  "i18nresources": "b2bnosearchresults",
  "imports": ["category"],
  "javascript": "b2b-no-search-results",
  "jsEditable": true,
  "minWidth": 1,
  "name": "Fabindia B2B No Search Results Widget",
  "pageTypes": ["noSearchResults"],
  "source": 101,
  "version": 1
}