{
    "widgetDescriptorName": "fabindiaFooterWidget",
    "properties": [
     {
        "id": "leftNavTitle",
        "type": "stringType",
        "name": "leftNavTitle",
        "helpTextResourceId": "leftNavTitleHelpText",
        "labelResourceId": "leftNavTitleLabel",
        "defaultValue": ""
      },
      {
        "id": "leftNavLinks",
        "type": "stringType",
        "name": "leftNavLinks",
        "helpTextResourceId": "leftNavLinksHelpText",
        "labelResourceId": "leftNavLinksLabel",
        "defaultValue": ""
      }
    ]
  }