{
    "availableToAllWidgets": false,
    "configOptions": [],
    "global": false,
    "inline": false,
    "supportedWidgetType": ["FabindiaB2BNoSearchResults"],
    "tag": "FabindiaB2BNoSearchPicker",
    "translations": [
      {
        "description": "Fabindia B2B No Search Picker",
        "language": "en",
        "title": "Fabindia B2B No Search Picker"
      }
    ],
    "type": "fragment",
    "version": 0
  }