{
  "widgetDescriptorName": "fabindiaproductdetailsWidget",
  "properties": [
    {
      "id": "shippingCostsMsgINR",
      "type": "stringType",
	  "name": "shippingCostsMsgINR",
      "helpTextResourceId": "shippingCostsMsgINRHelpText",
      "labelResourceId": "shippingCostsMsgINRLabel",
      "defaultValue": ""
    },
    {
      "id": "shippingCostsMsgUS",
      "type": "stringType",
	  "name": "shippingCostsMsgUS",
      "helpTextResourceId": "shippingCostsMsgUSHelpText",
      "labelResourceId": "shippingCostsMsgUSLabel",
      "defaultValue": ""
    },
    {
      "id": "sizeChartData",
      "type": "stringType",
      "name": "sizeChartData",
      "helpTextResourceId": "sizeChartDataHelpText",
      "labelResourceId": "sizeChartDataLabel",
      "defaultValue": "",
      "maxLength": 100000
    }
  ]
}