{
  "createdBy": "Adapty",
  "description": "Fabindia B2B Suggestive List Upload",
  "developerID": "[Insert Developer ID here]",
  "extensionID": "f939bbca-bf19-4eda-b2ac-a38c26f5a78b",
  "name": "Fabindia B2B Suggestive List Upload",
  "timeCreated": "2020-03-06",
  "version": 0
}