{
  "createdBy": "[Insert Created By here]",
  "description": "Fabindia B2B Account Contacts",
  "developerID": "[Insert Developer ID here]",
  "extensionID": "c1b2b9df-255a-4a56-b6a7-7ccb7ac4f16a",
  "name": "Fabindia B2B Account Contacts",
  "timeCreated": "2020-03-12",
  "version": 0
}