{
  "createdBy": "null null",
  "description": "Storefront layouts and widgets exported on Fri, Feb 21, 2020 at 04:10:54 UTC.",
  "developerID": "iuser6693164",
  "extensionID": "[Insert Extension ID here]",
  "name": "Storefront Extension.",
  "timeCreated": "2020-02-21",
  "version": 0
}