{
  "createdBy": "Adapty",
  "description": "Fabindia B2B Notifications Widget",
  "developerID": "[Insert Developer ID here]",
  "extensionID": "4d06d140-4c75-4101-a2e7-87d45179e48a",
  "name": "Fabindia B2B Notifications Widget",
  "timeCreated": "2020-03-04",
  "version": 0
}