{
  "widgetDescriptorName": "FabindiaHeaderWidget",
  "properties": [
    {
      "id": "organizationsListLimit",
      "type": "stringType",
      "name": "organizationsListLimit",
      "helpTextResourceId": "organizationsListLimitHelpText",
      "labelResourceId": "organizationsListLimitLabel",
      "defaultValue": "20",
      "required": true
    },
    {
      "id": "miniCartNumberOfItems",
      "type": "stringType",
      "name": "miniCartNumberOfItems",
      "helpTextResourceId": "miniCartNumberOfItemsHelpText",
      "labelResourceId": "miniCartNumberOfItemsLabel",
      "defaultValue": "3",
      "required": true
    },
    {
      "id": "displayMiniCart",
      "type": "booleanType",
      "name": "displayMiniCart",
      "helpTextResourceId": "miniCartDisplayMiniCartHelpText",
      "labelResourceId": "miniCartDisplayMiniCartTextLabel",
      "defaultValue": true
    },
    {
      "id": "miniCartDuration",
      "type": "stringType",
      "name": "miniCartDuration",
      "helpTextResourceId": "miniCartMiniCartDurationHelpText",
      "labelResourceId": "miniCartMiniCartDurationTextLabel",
      "defaultValue": "5",
      "required": true
    },
    {
      "id": "contactPicker",
      "type": "stringType",
      "name": "contactPicker",
      "helpTextResourceId": "contactPickerHelpText",
      "labelResourceId": "contactPickerLabel",
      "defaultValue": "+918010488888",
      "required": true
    },
    {
      "id": "tickerEnabled",
      "type": "booleanType",
      "name": "tickerEnabled",
      "helpTextResourceId": "tickerEnabledHelpText",
      "labelResourceId": "TickerEnabledTextLabel",
      "defaultValue": true
    },
    {
      "id": "tickerMessage",
      "type": "stringType",
      "name": "tickerMessage",
      "maxLength": 1000,
      "helpTextResourceId": "tickerMessageHelpText",
      "labelResourceId": "tickerMessageTextLabel",
      "defaultValue": "Free shipping for all orders above Rs.1000."
    },
	{
      "id": "tickerMessageInternational",
      "type": "stringType",
      "name": "tickerMessageInternational",
      "maxLength": 1000,
      "helpTextResourceId": "tickerMessageInternationalHelpText",
      "labelResourceId": "tickerMessageInternationalTextLabel",
      "defaultValue": "Free Shipping on all orders above $100."
    },
	{
      "id": "currencyConversionPopupText",
      "type": "stringType",
      "name": "currencyConversionPopupText",
      "maxLength": 1000,
      "helpTextResourceId": "currencyConversionPopupHelpText",
      "labelResourceId": "currencyConversionPopupTextLabel",
      "defaultValue": "Standard conversion rate is not followed in case of currency change. You will be charged as per the currency specific catalog."
    },
    {
      "id": "ipapiKey",
      "type": "stringType",
      "name": "ipapiKey",
      "maxLength": 1000,
      "helpTextResourceId": "ipapiKeyHelpText",
      "labelResourceId": "ipapiKeyTextLabel",
      "defaultValue": ""
    }
  ]
}