{
  "availableToAllWidgets": false,
  "children": [],
  "configOptions": [],
  "global": true,
  "inline": true,
  "supportedWidgetType": ["b2bHeader"],
  "tag": "b2b-header-logo",
  "translations": [
    {
      "description": "Element for holding Header logo",
      "language": "en",
      "title": "Logo"
    }
  ],
  "type": "fragment",
  "version": 11
}