{
  "createdBy": "Adapty",
  "description": "Fabindia B2B Search Box",
  "developerID": "[Insert Developer ID here]",
  "extensionID": "295f2138-da54-4324-a0c5-af5dfd59bbb3",
  "name": "Fabindia B2B Search Box",
  "timeCreated": "2020-03-05",
  "version": 0
}